[{
  "orderName": "vipin_order",
  "orderId": "0000015a-1242-dc3c-adde-d6c679f70000",
  "orderDescription": "Test-order",
  "orderStartDate": 1486425600000,
  "orderEndDate": 1487116800000,
  "orderStatus": "COMPLETE",
  "configureDTOSet": [{
    "configurationId": "00000159-fe9c-d066-a15f-ff9c07a00000",
    "configurationName": "airindianew",
    "configurationStatus": "ACTIVE",
    "packagingType": null,
    "titleList": []
  }, {
    "configurationId": "00000159-f386-da8b-ab79-fbafcab10000",
    "configurationName": "Sharma airline Configuration",
    "configurationStatus": "ACTIVE",
    "packagingType": "CIL",
    "titleList": [{
      "contentName": "best song",
      "contentInternalId": "00000159-f388-da8b-ab79-fbad3a570000",
      "contentStatus": "Validated",
      "contentStartDate": 1485849580432,
      "contentendDate": 1487231983576,
      "priority": "High"
    }]
  }],
  "displayGroupsList": null
}, {
  "orderName": "test2",
  "orderId": "0000015a-1242-dc3c-adde-d6c6e0f20000",
  "orderDescription": "abctest2",
  "orderStartDate": 1487116800000,
  "orderEndDate": 1487289600000,
  "orderStatus": "COMPLETE",
  "configureDTOSet": [{
    "configurationId": "00000159-f386-da8b-ab79-fbafcab10000",
    "configurationName": "Sharma airline Configuration",
    "configurationStatus": "ACTIVE",
    "packagingType": "CIL",
    "titleList": [{
      "contentName": "best song",
      "contentInternalId": "00000159-f388-da8b-ab79-fbad3a570000",
      "contentStatus": "Validated",
      "contentStartDate": 1485849580432,
      "contentendDate": 1487231983576,
      "priority": "High"
    }]
  }, {
    "configurationId": "00000159-fe9c-d066-a15f-ff9c07a00000",
    "configurationName": "airindianew",
    "configurationStatus": "ACTIVE",
    "packagingType": null,
    "titleList": []
  }, {
    "configurationId": "00000159-fe9e-d167-a7d9-fffe52e00000",
    "configurationName": "i5000",
    "configurationStatus": "ACTIVE",
    "packagingType": "CIL",
    "titleList": [{
      "contentName": "best song",
      "contentInternalId": "00000159-fe9f-d167-a7d9-ffff27e60000",
      "contentStatus": "Completed",
      "contentStartDate": 1486121980598,
      "contentendDate": 1487158785557,
      "priority": "Default"
    }, {
      "contentName": "Maahi ve",
      "contentInternalId": "00000159-fe9f-d167-a7d9-ffffb1230000",
      "contentStatus": "Validated",
      "contentStartDate": 1486554065329,
      "contentendDate": 1488022868647,
      "priority": "Default"
    }]
  }],
  "displayGroupsList": null
}, {
  "orderName": "Sh-1",
  "orderId": "0000015a-1249-dc3c-adde-d6cf0bc00000",
  "orderDescription": "Test Order",
  "orderStartDate": 1486425600000,
  "orderEndDate": 1487894400000,
  "orderStatus": "COMPLETE",
  "configureDTOSet": [{
    "configurationId": "00000159-fe9c-d066-a15f-ff9c07a00000",
    "configurationName": "airindianew",
    "configurationStatus": "ACTIVE",
    "packagingType": null,
    "titleList": []
  }],
  "displayGroupsList": null
}, {
  "orderName": "raman order",
  "orderId": "0000015a-124a-dfe9-adfa-9afa39af0000",
  "orderDescription": "Order by raman",
  "orderStartDate": 0,
  "orderEndDate": 0,
  "orderStatus": "COMPLETE",
  "configureDTOSet": [{
    "configurationId": "00000159-f386-da8b-ab79-fbafcab10000",
    "configurationName": "Sharma airline Configuration",
    "configurationStatus": "ACTIVE",
    "packagingType": "CIL",
    "titleList": [{
      "contentName": "best song",
      "contentInternalId": "00000159-f388-da8b-ab79-fbad3a570000",
      "contentStatus": "Validated",
      "contentStartDate": 1485849580432,
      "contentendDate": 1487231983576,
      "priority": "High"
    }]
  }],
  "displayGroupsList": [{
    "month": "string",
    "startDate": 1486365464117,
    "endDate": 1486365464117
  }]
}, {
  "orderName": "Sh-2",
  "orderId": "0000015a-124b-dc3c-adde-d6cf5a500000",
  "orderDescription": "Back-Date-Order",
  "orderStartDate": 1486080000000,
  "orderEndDate": 1487116800000,
  "orderStatus": "COMPLETE",
  "configureDTOSet": [{
    "configurationId": "00000159-fe9c-d066-a15f-ff9c07a00000",
    "configurationName": "airindianew",
    "configurationStatus": "ACTIVE",
    "packagingType": null,
    "titleList": []
  }],
  "displayGroupsList": null
}, {
  "orderName": "raman order",
  "orderId": "0000015a-124c-dfe9-adfa-9afe5b560000",
  "orderDescription": "order updated",
  "orderStartDate": 0,
  "orderEndDate": 0,
  "orderStatus": "COMPLETE",
  "configureDTOSet": [{
    "configurationId": "00000159-f386-da8b-ab79-fbafcab10000",
    "configurationName": "Sharma airline Configuration",
    "configurationStatus": "ACTIVE",
    "packagingType": "CIL",
    "titleList": [{
      "contentName": "best song",
      "contentInternalId": "00000159-f388-da8b-ab79-fbad3a570000",
      "contentStatus": "Validated",
      "contentStartDate": 1485849580432,
      "contentendDate": 1487231983576,
      "priority": "High"
    }]
  }],
  "displayGroupsList": [{
    "month": "string",
    "startDate": 1486365464116,
    "endDate": 1486365464116
  }]
}, {
  "orderName": "Sh-3",
  "orderId": "0000015a-124d-dc3c-adde-d6cf5d8b0000",
  "orderDescription": "lorem ipsum lorem ipsum  lorem ipsum  lorem ipsum  lorem ipsum ",
  "orderStartDate": 1486512000000,
  "orderEndDate": 1487203200000,
  "orderStatus": "COMPLETE",
  "configureDTOSet": [{
    "configurationId": "00000159-f386-da8b-ab79-fbafcab10000",
    "configurationName": "Sharma airline Configuration",
    "configurationStatus": "ACTIVE",
    "packagingType": "CIL",
    "titleList": [{
      "contentName": "best song",
      "contentInternalId": "00000159-f388-da8b-ab79-fbad3a570000",
      "contentStatus": "Validated",
      "contentStartDate": 1485849580432,
      "contentendDate": 1487231983576,
      "priority": "High"
    }]
  }],
  "displayGroupsList": null
}]
